{
  "quartet-ui-output": {
    "core": true,
    "preview": "",
    "initPath": "output/src/init.js",
    "readableName": "Output",
    "pluginName": "quartet-ui-output",
    "description": "User Interface for the Output Rules and logic for QU4RTET supply chain messaging.",
    "enabled": true
  },
  "quartet-ui-plugin-fda": {
    "core": false,
    "preview": "",
    "initPath": "fda/src/init.js",
    "readableName": "FDA Lookup Plugin",
    "pluginName": "quartet-ui-plugin-fda",
    "description": "Interface to lookup the OpenFDA API searching by NDC, manufacturer, brand or generic drug names",
    "enabled": true
  },
  "quartet-ui-templates": {
    "core": false,
    "preview": "",
    "initPath": "templates/src/init.js",
    "readableName": "QU4RTET Templates",
    "pluginName": "quartet-ui-templates",
    "description": "Create and manage QU4RTET templates from the user interface",
    "enabled": true
  },
  "quartet-ui-users": {
    "core": true,
    "preview": "",
    "initPath": "users/src/init.js",
    "readableName": "User Management",
    "pluginName": "Users",
    "description": "Interface to manage users, groups, and permissions.",
    "enabled": true
  },
  "Capture": {
    "core": true,
    "initPath": "capture/src/init.js",
    "preview": "",
    "readableName": "Capture",
    "pluginName": "Capture",
    "description": "\n              The Capture Plugin allows interaction with the backend QU4RTET Capture interface. The QU4RTET Capture app enables the “capture” and subsequent processing of messages through a primitive processing engine that allows developers to customize how messages get processed. The capture application also contains a standard EPCIS capture interface implementation as well.\n            ",
    "enabled": true
  },
  "epcis": {
    "core": true,
    "initPath": "epcis/src/init.js",
    "preview": "",
    "readableName": "EPCIS",
    "pluginName": "EPCIS",
    "description": "\n              The EPCIS Plugin allows interaction with the backend QU4RTET EPCIS interface. QU4RTET EPCIS is the EPCIS XML Parsing for the Quartet Platform\n            ",
    "enabled": true
  },
  "MasterData": {
    "core": true,
    "initPath": "masterdata/src/init.js",
    "preview": "",
    "readableName": "Master Data",
    "pluginName": "MasterData",
    "description": "\n              The interface plugin to handle material, lot and location master data.\n            ",
    "enabled": true
  },
  "SerialBox": {
    "core": true,
    "preview": "",
    "initPath": "serialbox/src/init.js",
    "readableName": "Serial Number Range Management",
    "pluginName": "SerialBox",
    "description": "\n                The Serial Number Range Management plugin offers users the\n                ability to interact with SerialBox, the backend solution for\n                your serial number range management requirements.\n\n                Among other functions, this plugin offers the ability to create\n                pools and serial number ranges as well as allocate numbers on\n                the fly from the QU4RTET interface.\n            ",
    "enabled": true
  }
}
